…
    mean(data_12$Place)

    ## [1] 76.45338

Seeing this has re-oriented my thoughts on the younger runners a little
bit. I think that some of the 7th graders are filling empty slots on
smaller teams so not all of them would finish very high.

Now I wanted to find all the runners who have made at least 2 trips to
the championship race:

    multi_run <- xc_data %>% group_by(xc_data$Name) %>% filter(n()>1)
    multi_run

    ## # A tibble: 3,154 x 7
    ## # Groups:   xc_data$Name [1,120]
    ##    Place Name              Grade  Time School  Year `xc_data$Name`   
    ##    <dbl> <chr>             <dbl> <dbl> <chr>  <dbl> <chr>            
    ##  1     1 Carrie Tollefson      9  17.3 Dblv    1991 Carrie Tollefson 
    ##  2     2 Tina Forthmiller     10  17.9 StF     1991 Tina Forthmiller 
    ##  3     3 Kara Wheeler          8  17.9 DuE     1991 Kara Wheeler     
    ##  4     4 Amy Hill              8  17.9 DuE     1991 Amy Hill         
    ##  5     5 Keri Zweig           11  18.1 Mtk     1991 Keri Zweig       
    ##  6     6 Turena Johnson       11  18.1 Brn     1991 Turena Johnson   
    ##  7     8 Julie Golla           9  18.3 Rjm     1991 Julie Golla      
    ##  8    12 Stephanie Simones    10  18.4 Msw     1991 Stephanie Simones
    ##  9    13 Andrea Lentz         10  18.5 Wil     1991 Andrea Lentz     
    ## 10    15 Barb Jones            9  18.6 Wbr     1991 Barb Jones       
    ## # ... with 3,144 more rows
…
    sum(multi_run$Grade==11)/sum(xc_data$Grade==11)

    ## [1] 0.6979167

    sum(multi_run$Grade==12)/sum(xc_data$Grade==12)

    ## [1] 0.5904936

Then I wanted to find all the girls in top ten over the 30 year period:

    top_10 = subset(multi_run, multi_run$Place<11)
    top_10

    ## # A tibble: 271 x 7
    ## # Groups:   xc_data$Name [152]
    ##    Place Name             Grade  Time School       Year `xc_data$Name`  
    ##    <dbl> <chr>            <dbl> <dbl> <chr>       <dbl> <chr>           
    ##  1     1 Carrie Tollefson     9  17.3 Dblv         1991 Carrie Tollefson
    ##  2     2 Tina Forthmiller    10  17.9 StF          1991 Tina Forthmiller
    ##  3     3 Kara Wheeler         8  17.9 DuE          1991 Kara Wheeler    
    ##  4     4 Amy Hill             8  17.9 DuE          1991 Amy Hill        
    ##  5     5 Keri Zweig          11  18.1 Mtk          1991 Keri Zweig      
    ##  6     6 Turena Johnson      11  18.1 Brn          1991 Turena Johnson  
    ##  7     8 Julie Golla          9  18.3 Rjm          1991 Julie Golla     
    ##  8     2 Amy Hill             9  19.0 Duluth East  1992 Amy Hill        
    ##  9     3 Missy Johnson       11  19.1 Hibbing      1992 Missy Johnson   
    ## 10     4 Turena Johnson      12  19.2 Brainerd     1992 Turena Johnson  
    ## # ... with 261 more rows

To begin to test my theory of girls not being prodigies when they run
fast in 9th grade, I made a data set of all the girls who were in the
top 10 in 9th and 12th grade and who had run in the championship more
than once:

    data_9_12 <- rbind(subset(top_10, top_10$Grade == 9),subset(top_10, top_10$Grade == 12))
    data_9_12

    ## # A tibble: 119 x 7
    ## # Groups:   xc_data$Name [105]
    ##    Place Name             Grade  Time School                Year `xc_data$Name`  
    ##    <dbl> <chr>            <dbl> <dbl> <chr>                <dbl> <chr>           
    ##  1     1 Carrie Tollefson     9  17.3 Dblv                  1991 Carrie Tollefson
    ##  2     8 Julie Golla          9  18.3 Rjm                   1991 Julie Golla     
    ##  3     2 Amy Hill             9  19.0 Duluth East           1992 Amy Hill        
    ##  4     5 Kara Wheeler         9  19.2 Duluth East           1992 Kara Wheeler    
    ##  5     7 Casey Cherne         9  19.6 Duluth East           1993 Casey Cherne    
    ##  6     8 Yvonne Glenn         9  19.6 Duluth Central        1993 Yvonne Glenn    
    ##  7    10 Amy Maciasek         9  19.7 Mounds View           1993 Amy Maciasek    
    ##  8     4 Beth Rautmann        9  18.9 White Bear Lake Area  1995 Beth Rautmann   
    ##  9     7 Serena Sullivan      9  19.0 Hibbing               1995 Serena Sullivan 
    ## 10    10 Kelly Brinkman       9  19.3 Hutchinson            1995 Kelly Brinkman  
    ## # ... with 109 more rows
…
As you can see, of the 105 girls who fit in the previous filter, only 14
had been top 10 in 9th and 12th grade.

Now, lets do the same for 11th and 12th grade:

    data_11_12 <- rbind(subset(top_10, top_10$Grade == 11),subset(top_10, top_10$Grade == 12))
    data_11_12

    ## # A tibble: 133 x 7
    ## # Groups:   xc_data$Name [103]
    ##    Place Name             Grade  Time School            Year `xc_data$Name`  
    ##    <dbl> <chr>            <dbl> <dbl> <chr>            <dbl> <chr>           
    ##  1     5 Keri Zweig          11  18.1 Mtk               1991 Keri Zweig      
    ##  2     6 Turena Johnson      11  18.1 Brn               1991 Turena Johnson  
    ##  3     3 Missy Johnson       11  19.1 Hibbing           1992 Missy Johnson   
    ##  4     6 Andrea Lentz        11  19.3 Willmar           1992 Andrea Lentz    
    ##  5     4 Julie Herrmann      11  19.3 Saint Louis Park  1993 Julie Herrmann  
    ##  6     6 Anna Gullingsrud    11  19.6 Mounds View       1993 Anna Gullingsrud
    ##  7     2 Kara Wheeler        11  17.8 Duluth East       1994 Kara Wheeler    
    ##  8     5 Amy Hill            11  18.6 Duluth East       1994 Amy Hill        
    ##  9     6 Heather Anderson    11  18.6 Osseo             1994 Heather Anderson
    ## 10     1 Elaine Eggleston    11  18.7 Roseville Area    1995 Elaine Eggleston
    ## # ... with 123 more rows

Finding the duplicate names:

    data_11_12[duplicated(data_11_12$`xc_data$Name`), ]

    ## # A tibble: 30 x 7
    ## # Groups:   xc_data$Name [30]
    ##    Place Name             Grade  Time School          Year `xc_data$Name`  
    ##    <dbl> <chr>            <dbl> <dbl> <chr>          <dbl> <chr>           
    ##  1     4 Turena Johnson      12  19.2 Brainerd        1992 Turena Johnson  
    ##  2     7 Keri Zweig          12  19.6 Minnetonka      1992 Keri Zweig      
    ##  3     3 Kara Wheeler        12  18.7 Duluth East     1995 Kara Wheeler    
    ##  4     8 Amy Hill            12  19.1 Duluth East     1995 Amy Hill        
    ##  5     7 Elaine Eggleston    12  19.2 Roseville Area  1996 Elaine Eggleston
    ##  6     3 Victoria Moses      12  18.8 Irondale        1997 Victoria Moses  
    ##  7     3 Kendall Wheeler     12  18.6 Duluth East     1999 Kendall Wheeler 
    ##  8     3 Lauren Burks        12  18.4 Park            2001 Lauren Burks    
    ##  9     4 Kari Higdem         12  18.5 Willmar         2004 Kari Higdem     
    ## 10     6 Katie Anderson      12  18.8 Blaine          2004 Katie Anderson  
    ## # ... with 20 more rows
…
